zoey_analysis
…
Figure 6: ?(caption)

We see in the initial graph that surprisingly, homes where the residents do not have control over their heating appear to use lower energy. When we disaggregate this variable by home type, however, this does not appear to be universally true.

# want: percentage of no-control homes that are also apartments
recs %>% 
  group_by(equip_used_short, housing_type) %>% 
  summarize(n = n())

`summarise()` has grouped output by 'equip_used_short'. You can override using
the `.groups` argument.

# A tibble: 33 × 3
# Groups:   equip_used_short [7]
   equip_used_short housing_type               n
   <chr>            <chr>                  <int>
 1 As needed        Apt large building       186
 2 As needed        Apt small building        62
 3 As needed        Mobile home               47
 4 As needed        Single family attached    75
 5 As needed        Single family detached   391
 6 Manually adjust  Apt large building       173
 7 Manually adjust  Apt small building        70
 8 Manually adjust  Mobile home               53
 9 Manually adjust  Single family attached   137
10 Manually adjust  Single family detached   981
# ℹ 23 more rows
…
